<svg viewBox="0 0 1440 808" fill="none" preserveAspectRatio="none"
  xmlns="http://www.w3.org/2000/svg">
  <g filter="url(#filter0_d)">
    <path d="M0 0H1440V306L1306.5 510L1093.67 679.469L800.333 741H564.143L211 649.286L85 579.5L0 534V0Z" fill="#172126"/>
  </g>
  <path d="M1440 179V340.414C1345.36 514.534 1183.56 715.734 881.211 778.351C542.258 848.553 174.344 649.678 0 536.852V531.032C216.932 637.548 618.84 792.877 947.222 682.312C1238.01 584.415 1367.53 378.604 1440 179Z" fill="#54ACD2"/>
  <path d="M1440 147V179C1367.53 378.844 1238.01 584.924 947.222 682.939C618.84 793.637 216.932 638.121 0 531.477V478.722C195.915 566.391 515.902 683.378 820 620.316C1151.01 551.676 1295 324.118 1440 147Z" fill="#E46382"/>
  <defs>
    <filter id="filter0_d" x="-4" y="0" width="1448" height="749" filterUnits="userSpaceOnUse" color-interpolation-filters="sRGB">
      <feFlood flood-opacity="0" result="BackgroundImageFix"/>
      <feColorMatrix in="SourceAlpha" type="matrix" values="0 0 0 0 0 0 0 0 0 0 0 0 0 0 0 0 0 0 127 0"/>
      <feOffset dy="4"/>
      <feGaussianBlur stdDeviation="2"/>
      <feColorMatrix type="matrix" values="0 0 0 0 0 0 0 0 0 0 0 0 0 0 0 0 0 0 0.25 0"/>
      <feBlend mode="normal" in2="BackgroundImageFix" result="effect1_dropShadow"/>
      <feBlend mode="normal" in="SourceGraphic" in2="effect1_dropShadow" result="shape"/>
    </filter>
  </defs>
</svg>
